<svg id="Layer_1" data-name="Layer 1" xmlns="http://www.w3.org/2000/svg" width="270.67" height="494" viewBox="0 0 270.67 494">
  <title>GiftPhone</title>
  <g>
    <path d="M232.84,4.15h-195C19.1,4.15,3.91,18.77,3.91,36.79V457.2c0,18,15.19,32.64,33.92,32.64h195c18.73,0,33.92-14.62,33.92-32.64V36.79C266.76,18.77,251.57,4.15,232.84,4.15Z" fill="#0fbfd8"/>
    <circle cx="28.49" cy="39.61" r="3.87" fill="#fff" opacity="0.4"/>
    <circle cx="48.62" cy="19.74" r="3.87" fill="#fff" opacity="0.4"/>
    <circle cx="88.79" cy="35.74" r="3.87" fill="#fff" opacity="0.4"/>
    <circle cx="96.52" cy="174.06" r="3.87" fill="#fff" opacity="0.4"/>
    <circle cx="24.62" cy="150.43" r="3.87" fill="#fff" opacity="0.4"/>
    <circle cx="64.1" cy="162.98" r="3.87" fill="#fff" opacity="0.4"/>
    <circle cx="52.49" cy="56.2" r="3.87" fill="#fff" opacity="0.4"/>
    <circle cx="135.33" cy="15.87" r="3.87" fill="#fff" opacity="0.4"/>
    <circle cx="56.36" cy="88.29" r="3.87" fill="#fff" opacity="0.4"/>
    <circle cx="24.62" cy="195.56" r="3.87" fill="#fff" opacity="0.4"/>
    <circle cx="92.66" cy="71.48" r="3.87" fill="#fff" opacity="0.4"/>
    <circle cx="128.9" cy="48.46" r="3.87" fill="#fff" opacity="0.4"/>
    <circle cx="253.94" cy="52.33" r="3.87" fill="#fff" opacity="0.4"/>
    <circle cx="205.94" cy="43.48" r="3.87" fill="#fff" opacity="0.4"/>
    <circle cx="223.98" cy="67.61" r="3.87" fill="#fff" opacity="0.4"/>
    <circle cx="220.11" cy="19.74" r="3.87" fill="#fff" opacity="0.4"/>
    <circle cx="20.75" cy="75.35" r="3.87" fill="#fff" opacity="0.4"/>
    <circle cx="24.62" cy="268.24" r="3.87" fill="#fff" opacity="0.4"/>
    <circle cx="44.75" cy="248.37" r="3.87" fill="#fff" opacity="0.4"/>
    <circle cx="205.94" cy="228.6" r="3.87" fill="#fff" opacity="0.4"/>
    <circle cx="157.99" cy="75.35" r="3.87" fill="#fff" opacity="0.4"/>
    <circle cx="84.92" cy="264.37" r="3.87" fill="#fff" opacity="0.4"/>
    <circle cx="209.8" cy="368.8" r="3.87" fill="#fff" opacity="0.4"/>
    <circle cx="237.55" cy="338.43" r="3.87" fill="#fff" opacity="0.4"/>
    <circle cx="194.38" cy="324.05" r="3.87" fill="#fff" opacity="0.4"/>
    <circle cx="67.97" cy="207.1" r="3.87" fill="#fff" opacity="0.4"/>
    <circle cx="250.07" cy="303.99" r="3.87" fill="#fff" opacity="0.4"/>
    <circle cx="220.11" cy="280.96" r="3.87" fill="#fff" opacity="0.4"/>
    <circle cx="194.38" cy="260.5" r="3.87" fill="#fff" opacity="0.4"/>
    <circle cx="237.55" cy="240.63" r="3.87" fill="#fff" opacity="0.4"/>
    <circle cx="48.62" cy="284.83" r="3.87" fill="#fff" opacity="0.4"/>
    <circle cx="131.46" cy="244.5" r="3.87" fill="#fff" opacity="0.4"/>
    <circle cx="52.49" cy="316.92" r="3.87" fill="#fff" opacity="0.4"/>
    <circle cx="20.75" cy="388.64" r="3.87" fill="#fff" opacity="0.4"/>
    <circle cx="121.82" cy="384.77" r="3.87" fill="#fff" opacity="0.4"/>
    <circle cx="56.36" cy="388.64" r="3.87" fill="#fff" opacity="0.4"/>
    <circle cx="64.1" cy="353.91" r="3.87" fill="#fff" opacity="0.4"/>
    <circle cx="106.1" cy="327.92" r="3.87" fill="#fff" opacity="0.4"/>
    <circle cx="32.36" cy="350.04" r="3.87" fill="#fff" opacity="0.4"/>
    <circle cx="129.71" cy="431.9" r="3.87" fill="#fff" opacity="0.4"/>
    <circle cx="250.07" cy="421.1" r="3.87" fill="#fff" opacity="0.4"/>
    <circle cx="198.25" cy="438.37" r="3.87" fill="#fff" opacity="0.4"/>
    <circle cx="227.85" cy="396.38" r="3.87" fill="#fff" opacity="0.4"/>
    <circle cx="231.72" cy="449.98" r="3.87" fill="#fff" opacity="0.4"/>
    <circle cx="216.24" cy="478.57" r="3.87" fill="#fff" opacity="0.4"/>
    <circle cx="81.05" cy="421.1" r="3.87" fill="#fff" opacity="0.4"/>
    <circle cx="36.23" cy="413.36" r="3.87" fill="#fff" opacity="0.4"/>
    <circle cx="20.75" cy="449.98" r="3.87" fill="#fff" opacity="0.4"/>
    <circle cx="88.79" cy="300.12" r="3.87" fill="#fff" opacity="0.4"/>
    <circle cx="253.94" cy="372.67" r="3.87" fill="#fff" opacity="0.4"/>
    <circle cx="84.92" cy="372.67" r="3.87" fill="#fff" opacity="0.4"/>
    <circle cx="109.97" cy="458.01" r="3.87" fill="#fff" opacity="0.4"/>
    <circle cx="48.62" cy="442.24" r="3.87" fill="#fff" opacity="0.4"/>
    <circle cx="40.1" cy="478.57" r="3.87" fill="#fff" opacity="0.4"/>
    <circle cx="75.71" cy="474.7" r="3.87" fill="#fff" opacity="0.4"/>
    <circle cx="111.52" cy="214.84" r="3.87" fill="#fff" opacity="0.4"/>
    <circle cx="124.15" cy="79.22" r="3.87" fill="#fff" opacity="0.4"/>
    <circle cx="237.55" cy="195.56" r="3.87" fill="#fff" opacity="0.4"/>
    <circle cx="257.81" cy="151.69" r="3.87" fill="#fff" opacity="0.4"/>
    <circle cx="216.24" cy="159.11" r="3.87" fill="#fff" opacity="0.4"/>
    <circle cx="120.28" cy="280.96" r="3.87" fill="#fff" opacity="0.4"/>
    <circle cx="128.9" cy="346.17" r="3.87" fill="#fff" opacity="0.4"/>
    <circle cx="16.88" cy="303.99" r="3.87" fill="#fff" opacity="0.4"/>
    <circle cx="209.8" cy="97.14" r="3.87" fill="#fff" opacity="0.4"/>
    <polygon points="190.51 489.85 139.48 489.85 139.48 4.15 188.75 4.15 190.51 4.15 190.51 489.85" fill="#3c61ad"/>
    <rect x="4.07" y="96.79" width="262.53" height="51.03" fill="#3c61ad"/>
    <rect x="134.85" y="4.15" width="51.03" height="485.69" fill="#2e7fc3" stroke="#2e7fc2" stroke-linecap="round" stroke-linejoin="round" stroke-width="1.84"/>
    <rect x="4.07" y="92.16" width="262.53" height="51.03" fill="#2e7fc3" stroke="#2e7fc2" stroke-linecap="round" stroke-linejoin="round" stroke-width="1.84"/>
    <polygon points="166.42 141.15 181.86 195.56 187.42 195.56 192.4 181.4 211.5 183.79 188.35 130.4 166.42 141.15" fill="#232a5e"/>
    <polygon points="174.79 141.15 153.78 195.56 148.22 195.56 148.81 180.47 129.71 181.93 152.85 130.4 174.79 141.15" fill="#232a5e"/>
    <polygon points="160.85 141.15 181.86 195.56 186.83 181.4 205.94 182.86 182.79 130.4 160.85 141.15" fill="#273d90"/>
    <polygon points="169.23 141.15 148.22 195.56 143.25 181.4 124.15 182.86 147.29 130.4 169.23 141.15" fill="#273d90"/>
    <path d="M178.37,106s16-10.08,30.67-10.08c9.65,0,14.93,11.67,14.93,19.62s0,21.74-15.38,21.74c-10.61,0-30.23-9.55-30.23-9.55V106Z" fill="#f48c9b"/>
    <path d="M151.71,106s-16-10.08-30.67-10.08c-9.65,0-14.94,11.67-14.94,19.62s0,21.74,15.38,21.74c10.61,0,30.23-9.55,30.23-9.55V106Z" fill="#f48c9b"/>
    <path d="M178.37,110.63s16-10.08,30.67-10.08c9.65,0,14.93,11.67,14.93,19.62s0,21.74-15.38,21.74c-10.61,0-30.23-9.55-30.23-9.55V110.63Z" fill="#f0546f"/>
    <path d="M151.71,110.63s-16-10.08-30.67-10.08c-9.65,0-14.94,11.67-14.94,19.62s0,21.74,15.38,21.74c10.61,0,30.23-9.55,30.23-9.55V110.63Z" fill="#f0546f"/>
    <circle cx="165.01" cy="117.66" r="17.7" fill="#ffca6d"/>
    <circle cx="165.01" cy="122.3" r="17.7" fill="#faae1a"/>
    <g>
      <path d="M112,120.19s1.12-10.73,8.08-13c5.14-1.7,11.64.56,11.64,0.56a25.88,25.88,0,0,0-11.42,2.5C116.74,112,113.87,115.29,112,120.19Z" fill="#f9f9fa"/>
      <path d="M112,120.63h-0.1a0.44,0.44,0,0,1-.33-0.47c0-.45,1.23-11,8.38-13.4a14.35,14.35,0,0,1,4.5-.66,25.19,25.19,0,0,1,7.42,1.22,0.44,0.44,0,0,1,.28.49,0.4,0.4,0,0,1-.44.35,25.69,25.69,0,0,0-11.21,2.46c-3.56,1.82-6.29,5.1-8.1,9.74A0.44,0.44,0,0,1,112,120.63ZM124.4,107a13.54,13.54,0,0,0-4.22.61c-4.1,1.36-6.11,5.87-7,9.12a16.84,16.84,0,0,1,6.93-6.86,24.87,24.87,0,0,1,8.69-2.42A22.73,22.73,0,0,0,124.4,107Z" fill="#fff"/>
    </g>
  </g>
</svg>
