<?xml version="1.0" encoding="utf-8"?>
<!-- Generator: Adobe Illustrator 16.0.0, SVG Export Plug-In . SVG Version: 6.00 Build 0)  -->
<!DOCTYPE svg PUBLIC "-//W3C//DTD SVG 1.1//EN" "http://www.w3.org/Graphics/SVG/1.1/DTD/svg11.dtd">
<svg version="1.1" id="Layer_1" xmlns="http://www.w3.org/2000/svg" xmlns:xlink="http://www.w3.org/1999/xlink" x="0px" y="0px"
	 width="30px" height="30px" viewBox="0 0 30 30" enable-background="new 0 0 30 30" xml:space="preserve">
<path fill-rule="evenodd" clip-rule="evenodd" fill="#1A1A21" d="M27.514,6.209l0.002-5.211c0-0.317-0.205-0.604-0.458-0.797
	c-0.253-0.196-0.632-0.244-0.945-0.164L10.902,4.351c-0.652,0.188-1.024,0.688-1.024,1.37c0.009,5.238,0.503,10.477,0.503,15.715
	v0.803c-1.049-0.316-2.667-0.378-3.883-0.188c-1.342,0.217-2.373,0.713-3.147,1.517c-0.973,1.004-0.966,2.75-0.789,3.442
	c0.193,0.745,0.646,1.362,1.382,1.882C4.936,29.595,6.345,30,7.812,30c1.373,0,2.968-0.345,3.925-0.972
	c1.124-0.735,1.689-1.771,1.681-3.076c-0.026-3.129-0.021-6.97-0.017-10.099l0.003-4.446l10.575-3.14l0.458,9.596
	c-1.325-0.399-3.191-0.457-4.625-0.069c-0.985,0.264-1.798,0.732-2.417,1.392c-1.104,1.174-1.099,3.569,0.013,4.709
	c0.283,0.292,0.62,0.562,0.976,0.779c0.794,0.492,1.719,0.773,2.817,0.862c0.245,0.02,0.488,0.029,0.728,0.029
	c1.274,0,2.757-0.295,3.765-0.883c1.225-0.715,1.844-1.781,1.837-3.17C27.509,16.649,27.511,11.075,27.514,6.209"/>
</svg>
