<?xml version="1.0" encoding="utf-8"?>
<!-- Generator: Adobe Illustrator 16.0.0, SVG Export Plug-In . SVG Version: 6.00 Build 0)  -->
<!DOCTYPE svg PUBLIC "-//W3C//DTD SVG 1.1//EN" "http://www.w3.org/Graphics/SVG/1.1/DTD/svg11.dtd">
<svg version="1.1" id="Layer_1" xmlns="http://www.w3.org/2000/svg" xmlns:xlink="http://www.w3.org/1999/xlink" x="0px" y="0px"
	 width="196.136px" height="30px" viewBox="0 0 196.136 30" enable-background="new 0 0 196.136 30" xml:space="preserve">
<g>
	<g opacity="0.7">
		<path fill-rule="evenodd" clip-rule="evenodd" d="M196.136,21.566c-0.042,0.342-0.089,0.685-0.123,1.027
			c-0.298,3.015-1.939,4.974-4.729,6.028c-1.421,0.537-2.901,0.751-4.411,0.796c-1.905,0.055-3.785-0.086-5.597-0.724
			c-2.033-0.715-3.615-1.935-4.446-3.989c-0.368-0.91-0.53-1.868-0.553-2.837c-0.047-2.036-0.057-4.073-0.066-6.109
			c-0.006-2.397-0.021-4.794,0.025-7.19c0.023-1.295,0.183-2.584,0.696-3.799c0.84-1.988,2.362-3.221,4.359-3.907
			c1.933-0.665,3.934-0.796,5.96-0.692c1.497,0.077,2.964,0.304,4.359,0.877c2.648,1.087,4.109,3.072,4.376,5.905
			c0.087,0.925,0.015,1.866,0.015,2.827c-2.288,0-4.613,0-6.979,0c0-0.503,0.013-1-0.004-1.498c-0.013-0.391-0.017-0.789-0.1-1.167
			c-0.262-1.165-1.219-1.908-2.501-1.955c-0.376-0.014-0.766,0.009-1.133,0.085c-1.159,0.244-1.912,1.14-2.031,2.381
			c-0.034,0.368-0.053,0.739-0.053,1.109c-0.002,4.183-0.004,8.367,0.002,12.551c0,0.348,0.015,0.7,0.072,1.041
			c0.189,1.106,1.083,1.91,2.239,2.061c0.625,0.081,1.24,0.058,1.839-0.142c1.019-0.339,1.691-1.16,1.718-2.232
			c0.041-1.546,0.013-3.093,0.011-4.64c0-0.03-0.017-0.06-0.038-0.118c-0.919,0-1.84,0-2.79,0c0-1.361,0-2.693,0-4.055
			c3.307,0,6.594,0,9.882,0C196.136,15.987,196.136,18.776,196.136,21.566z"/>
		<path fill-rule="evenodd" clip-rule="evenodd" d="M0,19.735c2.492,0,4.982,0,7.513,0c0,0.172-0.002,0.311,0,0.45
			c0.015,0.881-0.017,1.766,0.06,2.642c0.091,1.027,0.714,1.677,1.686,1.985c0.657,0.208,1.332,0.216,2.001,0.059
			c1.105-0.263,1.705-0.992,1.899-2.143c0.228-1.352-0.285-2.375-1.278-3.228c-1.165-1.003-2.518-1.709-3.851-2.445
			c-1.601-0.883-3.228-1.729-4.664-2.873c-0.493-0.393-0.957-0.826-1.395-1.279c-1.108-1.142-1.65-2.542-1.756-4.114
			c-0.087-1.292,0.013-2.569,0.43-3.803c0.778-2.3,2.479-3.615,4.712-4.329c1.976-0.633,4.013-0.734,6.069-0.615
			c1.508,0.087,2.986,0.325,4.379,0.941c2.315,1.024,3.572,2.81,3.732,5.334c0.058,0.876,0.011,1.759,0.011,2.664
			c-2.286,0-4.579,0-6.914,0c-0.006-0.103-0.021-0.217-0.021-0.331c-0.002-0.447,0-0.893-0.002-1.341
			c-0.008-1.543-0.938-2.5-2.486-2.562C8.623,4.689,7.666,5.346,7.413,6.682C7.228,7.648,7.405,8.538,8.155,9.261
			c0.908,0.874,2.005,1.452,3.085,2.061c1.678,0.944,3.364,1.875,5.017,2.861c0.946,0.566,1.765,1.309,2.479,2.157
			c0.9,1.068,1.365,2.301,1.467,3.694c0.111,1.499,0.073,2.989-0.297,4.444c-0.579,2.275-2.082,3.74-4.219,4.6
			c-1.263,0.508-2.586,0.753-3.938,0.852c-0.125,0.009-0.249,0.045-0.372,0.07c-0.785,0-1.569,0-2.354,0
			c-0.115-0.023-0.228-0.061-0.342-0.069c-1.263-0.084-2.501-0.303-3.692-0.736c-2.607-0.951-4.298-2.713-4.821-5.495
			C0.104,23.36,0.055,23.019,0,22.677C0,21.697,0,20.717,0,19.735z"/>
		<path fill-rule="evenodd" clip-rule="evenodd" d="M84.398,28.869c-2.343,0-4.638,0-6.988,0
			c-0.064-8.529-0.127-17.046-0.191-25.563c-0.025-0.003-0.051-0.005-0.074-0.009c-0.111,0.572-0.221,1.144-0.33,1.716
			c-0.67,3.592-1.338,7.185-2.005,10.776c-0.732,3.923-1.459,7.848-2.187,11.771c-0.068,0.364-0.121,0.73-0.21,1.089
			c-0.021,0.09-0.153,0.222-0.234,0.222c-2.288,0.012-4.574,0.009-6.9,0.009c-1.583-8.515-3.165-17.017-4.747-25.52
			c-0.032,0.001-0.064,0.003-0.096,0.003c-0.062,8.492-0.124,16.983-0.185,25.495c-2.331,0-4.623,0-6.988,0
			c0.202-9.303,0.402-18.602,0.604-27.931c3.815,0,7.6,0,11.43,0c1.163,7.209,2.329,14.429,3.496,21.649
			c0.021,0.003,0.044,0.005,0.068,0.008c0.058-0.322,0.121-0.644,0.172-0.969c0.642-3.984,1.28-7.968,1.922-11.952
			c0.453-2.823,0.915-5.647,1.365-8.471c0.036-0.225,0.124-0.301,0.357-0.301c3.596,0.007,7.192,0.008,10.788,0
			c0.279-0.001,0.338,0.092,0.343,0.355c0.04,2.526,0.093,5.052,0.145,7.577c0.041,1.927,0.087,3.853,0.129,5.78
			c0.066,2.939,0.132,5.878,0.198,8.817c0.038,1.708,0.076,3.418,0.117,5.127C84.4,28.646,84.398,28.741,84.398,28.869z"/>
		<path fill-rule="evenodd" clip-rule="evenodd" d="M161.939,0.917c2.326,0,4.6,0,6.896,0c0,9.217,0,18.428,0,27.681
			c-0.129,0-0.257,0-0.385,0c-3.051,0-6.101-0.004-9.152,0.007c-0.313,0.001-0.449-0.085-0.542-0.392
			c-2.195-7.239-4.402-14.476-6.605-21.711c-0.096-0.31-0.191-0.619-0.312-1.017c-0.032,0.132-0.053,0.175-0.051,0.219
			c0.03,2.155,0.06,4.312,0.096,6.467c0.042,2.537,0.087,5.073,0.13,7.61c0.044,2.536,0.087,5.073,0.132,7.608
			c0.006,0.293,0.006,0.588,0.034,0.881c0.021,0.259-0.068,0.334-0.33,0.333c-1.514-0.012-3.028-0.005-4.544-0.005
			c-0.555,0-1.11-0.014-1.665,0.006c-0.281,0.01-0.376-0.092-0.34-0.356c0.007-0.042,0-0.087,0-0.131c0-8.913,0-17.824,0-26.736
			c0-0.149,0-0.298,0-0.483c0.166,0,0.283,0,0.4,0c3.215,0,6.429,0.003,9.642-0.005c0.27-0.001,0.389,0.07,0.468,0.343
			c2.099,7.2,4.21,14.397,6.32,21.594c0.039,0.132,0.081,0.264,0.188,0.387C162.192,15.8,162.066,8.379,161.939,0.917z"/>
		<path fill-rule="evenodd" clip-rule="evenodd" d="M130.442,0.922c2.369,0,4.706,0,7.069,0c0.008,0.13,0.017,0.249,0.017,0.365
			c0,6.788,0.006,13.575-0.004,20.361c-0.002,1.404-0.204,2.78-0.853,4.051c-0.925,1.814-2.471,2.855-4.364,3.431
			c-1.952,0.593-3.96,0.681-5.982,0.558c-1.353-0.082-2.678-0.301-3.949-0.797c-2.673-1.045-4.13-3.022-4.419-5.855
			c-0.085-0.819-0.083-1.649-0.083-2.474c-0.006-6.385-0.004-12.769-0.004-19.153c0-0.151,0-0.302,0-0.48c2.356,0,4.681,0,7.056,0
			c0,0.132,0,0.269,0,0.405c0,6.831-0.004,13.662,0.008,20.493c0.002,0.427,0.06,0.878,0.204,1.276
			c0.434,1.183,1.65,1.8,3.007,1.586c1.476-0.233,2.296-1.208,2.296-2.737c0.002-6.863,0-13.727,0-20.591
			C130.442,1.222,130.442,1.082,130.442,0.922z"/>
		<path fill-rule="evenodd" clip-rule="evenodd" d="M47.63,28.867c-2.497,0-4.978,0-7.492,0c-1.263-8.571-2.524-17.132-3.785-25.694
			c-0.026-0.003-0.051-0.005-0.079-0.008c-1.291,8.554-2.582,17.109-3.879,25.69c-2.501,0-5.002,0-7.554,0
			c1.727-9.31,3.452-18.614,5.183-27.956c0.142,0,0.27,0,0.397,0c3.89,0,7.779,0.005,11.668-0.01
			c0.332-0.001,0.415,0.118,0.466,0.409c0.595,3.262,1.201,6.521,1.805,9.782c0.619,3.357,1.236,6.715,1.854,10.073
			c0.447,2.417,0.895,4.833,1.342,7.249C47.586,28.55,47.605,28.7,47.63,28.867z"/>
		<path fill-rule="evenodd" clip-rule="evenodd" d="M110.615,9.059c-2.295,0-4.549,0-6.843,0c-0.006-0.116-0.02-0.23-0.021-0.344
			c-0.011-0.534-0.002-1.068-0.034-1.6c-0.091-1.553-1.276-2.384-2.847-2.266c-1.001,0.074-1.806,0.487-2.135,1.488
			c-0.336,1.024-0.291,2.02,0.5,2.867c0.65,0.694,1.442,1.193,2.26,1.65c1.501,0.839,3.024,1.635,4.517,2.488
			c1.375,0.785,2.665,1.693,3.717,2.903c0.983,1.13,1.455,2.45,1.544,3.933c0.085,1.399,0.053,2.792-0.283,4.154
			c-0.581,2.353-2.142,3.825-4.353,4.67c-1.312,0.502-2.682,0.72-4.081,0.804c-1.761,0.108-3.505,0.012-5.219-0.408
			c-1.795-0.44-3.396-1.229-4.57-2.72c-0.811-1.029-1.268-2.216-1.387-3.503c-0.106-1.145-0.096-2.301-0.136-3.476
			c2.518,0,4.974,0,7.466,0c0,0.868-0.008,1.726,0.004,2.583c0.004,0.28,0.03,0.569,0.104,0.838
			c0.255,0.904,0.894,1.422,1.778,1.641c0.645,0.161,1.297,0.151,1.942-0.014c1.019-0.263,1.58-0.988,1.758-2.113
			c0.204-1.291-0.249-2.297-1.204-3.13c-1.093-0.954-2.373-1.613-3.615-2.334c-1.514-0.879-3.031-1.76-4.504-2.705
			c-0.965-0.619-1.78-1.433-2.433-2.391c-0.81-1.188-1.08-2.526-1.083-3.936c0-1.512,0.228-2.976,1.017-4.298
			c0.998-1.668,2.543-2.588,4.355-3.112c2.057-0.594,4.16-0.661,6.278-0.489c1.354,0.111,2.675,0.368,3.915,0.94
			c2.329,1.075,3.479,2.936,3.585,5.465C110.642,7.437,110.615,8.23,110.615,9.059z"/>
	</g>
</g>
</svg>
